{
  "name": "query+imageinfo",
  "mode": "prop",
  "fieldname": "imageinfo",
  "prop": "iiprop",
  "wrap_in_vec": true,
  "fields": [
    {
      "name": "timestamp",
      "type_": "timestamp",
      "prop": "timestamp"
    },
    {
      "name": "userhidden",
      "type_": "bool",
      "default": true,
      "prop": "user||userid"
    },
    {
      "name": "user",
      "type_": {
        "inner": "String",
        "option": true
      },
      "prop": "user"
    },
    {
      "name": "anon",
      "type_": "bool",
      "default": true,
      "prop": "user||userid"
    },
    {
      "name": "userid",
      "type_": {
        "inner": "u32",
        "option": true
      },
      "prop": "userid"
    },
    {
      "name": "comment",
      "type_": {
        "inner": "String",
        "option": true
      },
      "prop": "comment"
    },
    {
      "name": "commenthidden",
      "type_": "bool",
      "default": true,
      "prop": "comment||parsedcomment"
    },
    {
      "name": "parsedcomment",
      "type_": {
        "inner": "String",
        "option": true
      },
      "prop": "parsedcomment"
    },
    {
      "name": "canonicaltitle",
      "type_": {
        "inner": "String",
        "option": true
      },
      "prop": "canonicaltitle"
    },
    {
      "name": "filehidden",
      "type_": "bool",
      "default": true,
      "prop": "canonicaltitle||url||sha1|mime"
    },
    {
      "name": "url",
      "type_": {
        "inner": "String",
        "option": true
      },
      "prop": "url"
    },
    {
      "name": "descriptionurl",
      "type_": {
        "inner": "String",
        "option": true
      },
      "prop": "url"
    },
    {
      "name": "descriptionshorturl",
      "type_": {
        "inner": "String",
        "option": true
      },
      "prop": "descriptionshorturl"
    },
    {
      "name": "size",
      "type_": "u64",
      "prop": "size"
    },
    {
      "name": "width",
      "type_": "u64",
      "prop": "size"
    },
    {
      "name": "height",
      "type_": "u64",
      "prop": "size"
    },
    {
      "name": "sha1",
      "type_": {
        "inner": "String",
        "option": true
      },
      "prop": "sha1"
    },
    {
      "name": "mime",
      "type_": {
        "inner": "String",
        "option": true
      },
      "prop": "mime"
    },
    {
      "name": "thumburl",
      "type_": {
        "inner": "String",
        "option": true
      },
      "prop": "url",
      "param": "iiurlwidth||iiurlheight"
    },
    {
      "name": "thumbwidth",
      "type_": {
        "inner": "u64",
        "option": true
      },
      "prop": "url",
      "param": "iiurlwidth||iiurlheight"
    },
    {
      "name": "thumbheight",
      "type_": {
        "inner": "u64",
        "option": true
      },
      "prop": "url",
      "param": "iiurlwidth||iiurlheight"
    },
    {
      "name": "responsiveUrls",
      "type_": {
        "key": "String",
        "value": "String"
      },
      "default": true,
      "prop": "url",
      "param": "iiurlwidth||iiurlheight"
    }
  ],
  "test_extra": {
    "assert": {
      "continue": true,
      "length": 1
    },
    "params": {
      "titles": "File:Albert Einstein Head.jpg",
      "iiurlwidth": 10
    }
  }
}
